Mapping Brunei: An Introduction to Spatial Data Analysis with {bruneimap} in R
…
R has well-supported classes for storing spatial data (sp) and interfacing to the above mentioned environments (rgdal, rgeos), but has so far lacked a complete implementation of simple features, making conversions at times convoluted, inefficient or incomplete. The package sf tries to fill this gap, and aims at succeeding sp in the long term.

The standard is widely implemented in spatial databases (such as PostGIS), commercial GIS (e.g., ESRI ArcGIS) and forms the vector data basis for libraries such as GDAL. A subset of simple features forms the GeoJSON standard.

Spatial data in R (cont.)

pop_sf |> 
  select(kampong, mukim, district, population, household, occ_liv_q)

Simple feature collection with 438 features and 6 fields
Geometry type: GEOMETRY
Dimension:     XY
Bounding box:  xmin: 114.0759 ymin: 4.002635 xmax: 115.3603 ymax: 5.045878
Geodetic CRS:  WGS 84
# A tibble: 438 × 7
   kampong                mukim          district population household occ_liv_q
   <chr>                  <chr>          <chr>         <dbl>     <dbl>     <dbl>
 1 Kg. Biang              Mukim Amo      Temburo…         75        13        13
 2 Kg. Amo                Mukim Amo      Temburo…        394        83        62
 3 Kg. Sibut              Mukim Amo      Temburo…        192        37        27
 4 Kg. Sumbiling Baru     Mukim Amo      Temburo…         91        23        16
 5 Kg. Batang Duri        Mukim Amo      Temburo…        108        23        22
 6 Kg. Sumbiling Lama Amo Mukim Amo      Temburo…        143        23        21
 7 Kg. Selapon            Mukim Batu Ap… Temburo…        199        38        37
 8 Kg. Lepong             Mukim Bokok    Temburo…        123        26        22
 9 Kg. Semabat            Mukim Bokok    Temburo…         95        26        12
10 Kg. Temada             Mukim Bokok    Temburo…         90        23        23
# ℹ 428 more rows
# ℹ 1 more variable: geometry <POLYGON [°]>
…
